Project Phase Plots
…
stopped here.

I still need to add project name labels, program labels and get the numbers as percents

df

## # A tibble: 59 x 18
##    Phase   Number Name  Program Master Active Latitude Longitude Forecast Budget
##    <chr>    <dbl> <chr> <chr>   <chr>  <chr>     <dbl>     <dbl> <chr>    <chr> 
##  1 IMPLEM~ 1.03e6 AD P~ AD PAV~ Yes    Yes        47.5     -122. Yes      No    
##  2 PLANNI~ 1.03e6 AD S~ <NA>    No     Yes        47.5     -122. Yes      No    
##  3 IMPLEM~ 1.03e6 AD N~ AD NOR~ Yes    Yes        47.5     -122. Yes      No    
##  4 IMPLEM~ 1.12e6 AD  ~ AD  AI~ Yes    Yes        47.5     -122. Yes      No    
##  5 IMPLEM~ 1.12e6 AD ~ AD NOR~ No     Yes        47.5     -122. Yes      No    
##  6 PLANNI~ 1.12e6 AD  ~ AD   A~ Yes    Yes        NA         NA  Yes      No    
##  7 IMPLEM~ 1.12e6 AD  ~ AD  AI~ Yes    Yes        47.7     -122. Yes      Supp/~
##  8 IMPLEM~ 1.12e6 AD  ~ AD   L~ Yes    Yes        47.5     -122. Yes      No    
##  9 IMPLEM~ 1.12e6 AD W~ AD   A~ No     Yes        47.5     -122. Yes      No    
## 10 PLANNI~ 1.12e6 AD A~ <NA>    No     Yes        NA         NA  Yes      No    
## # ... with 49 more rows, and 8 more variables: `Capital/Operating` <chr>,
## #   `YTD Actuals` <dbl>, `LTD Actuals` <dbl>, `EAC (Current)` <dbl>,
## #   `Annual (Current)` <dbl>, `% Annual Variance` <dbl>, `Project Id` <dbl>,
## #   `Master Project Id` <dbl>
…
